Exploring the BRFSS data
…
There are rows with 0 and 80 values among other states. We can check them manually to find that those values are in two cases only. We can filter them out but 2 cases out of half a million wont make any impact on the results.

brfss2013 %>%
  filter(X_state != "0", X_state != "80") %>%
  group_by(X_state) %>%
  summarise(count = n())

## # A tibble: 53 x 2
##    X_state              count
##    <fct>                <int>
##  1 Alabama               6505
##  2 Alaska                4578
##  3 Arizona               4253
##  4 Arkansas              5268
##  5 California           11518
##  6 Colorado             13649
##  7 Connecticut           7710
##  8 Delaware              5206
##  9 District of Columbia  4931
## 10 Florida              33668
## #  with 43 more rows
…
The count plot above shows the size of a household and smoker status with the number of cases

Step 2

Heres the summary showing the relationship between the smokers (X_rfsmok3) and number of adults in the household (numadult).

brfss2013 %>%
  filter(!is.na(X_rfsmok3), !is.na(numadult), X_chldcnt == "No children in household") %>%
  group_by(X_rfsmok3, numadult) %>%
  summarise(n())

## # A tibble: 24 x 3
## # Groups:   X_rfsmok3 [2]
##    X_rfsmok3 numadult  `n()`
##    <fct>     <fct>     <int>
##  1 No        1         96320
##  2 No        2        116528
##  3 No        3         16486
##  4 No        4          4988
##  5 No        5           964
##  6 No        6           207
##  7 No        7            27
##  8 No        8            14
##  9 No        9             3
## 10 No        10            3
## #  with 14 more rows
…
